^D:\3AHEL\AINF\HANGMAN\HANGMAN\HANGMAN\FORMMAIN.RESX|D:\3AHEL\AINF\HANGMAN\HANGMAN\HANGMAN\PROPERTIES\RESOURCES.RESX
D:\3AHEL\AINF\HANGMAN\HANGMAN\HANGMAN\OBJ\X86\DEBUG\HANGMAN.FORMMAIN.RESOURCES
D:\3AHEL\AINF\HANGMAN\HANGMAN\HANGMAN\OBJ\X86\DEBUG\HANGMAN.PROPERTIES.RESOURCES.RESOURCES
^D:\3AHEL\AINF\HANGMAN\HANGMAN\HANGMAN\FORMMAIN.RESX|D:\3AHEL\AINF\HANGMAN\HANGMAN\HANGMAN\PROPERTIES\RESOURCES.RESX|D:\3AHEL\AINF\HANGMAN\HANGMAN\HANGMAN\USERCONTROL1.RESX
D:\3AHEL\AINF\HANGMAN\HANGMAN\HANGMAN\OBJ\X86\DEBUG\HANGMAN.FORMMAIN.RESOURCES
D:\3AHEL\AINF\HANGMAN\HANGMAN\HANGMAN\OBJ\X86\DEBUG\HANGMAN.PROPERTIES.RESOURCES.RESOURCES
D:\3AHEL\AINF\HANGMAN\HANGMAN\HANGMAN\OBJ\X86\DEBUG\HANGMAN.USERCONTROL1.RESOURCES
^D:\3AHEL\AINF\HANGMAN\HANGMAN\HANGMAN\ABOUTBOX1.RESX|D:\3AHEL\AINF\HANGMAN\HANGMAN\HANGMAN\FORMMAIN.RESX|D:\3AHEL\AINF\HANGMAN\HANGMAN\HANGMAN\PROPERTIES\RESOURCES.RESX|D:\3AHEL\AINF\HANGMAN\HANGMAN\HANGMAN\USERCONTROL1.RESX
D:\3AHEL\AINF\HANGMAN\HANGMAN\HANGMAN\OBJ\X86\DEBUG\HANGMAN.ABOUTBOX1.RESOURCES
D:\3AHEL\AINF\HANGMAN\HANGMAN\HANGMAN\OBJ\X86\DEBUG\HANGMAN.FORMMAIN.RESOURCES
D:\3AHEL\AINF\HANGMAN\HANGMAN\HANGMAN\OBJ\X86\DEBUG\HANGMAN.PROPERTIES.RESOURCES.RESOURCES
D:\3AHEL\AINF\HANGMAN\HANGMAN\HANGMAN\OBJ\X86\DEBUG\HANGMAN.USERCONTROL1.RESOURCES
